[
  "3dm-file-format",
  "3ds-file-format-symbol",
  "3g2-file-format-symbol",
  "3gp-file-format-variant",
  "7z-file-format-variant",
  "aac-file-format",
  "ai-file-format-symbol",
  "aif-file-format",
  "angel",
  "apk-file-format",
  "app-file-format-variant",
  "asf-file-format-variant",
  "asp-file-format-symbol",
  "aspx-file-format",
  "asx-multimedia-file-format",
  "avi-file-format-variant",
  "bak-file-format-symbol",
  "bat-file-format-symbol",
  "bin-file-format",
  "blank-file",
  "bmp-file-format-symbol",
  "cab-file-format",
  "cad-file-format-symbol",
  "cdr-file-format-symbol",
  "cer-file-format",
  "cfg-file-format-symbol",
  "cfm-file-format-symbol",
  "cgi-file-format-symbol",
  "class-file-format-variant",
  "com-file-format-symbol",
  "cpl-file-format-variant",
  "cpp-file-format-symbol",
  "crx-file-format-symbol",
  "csr-file-format",
  "css-file-format-symbol",
  "csv-file-format-symbol",
  "cue-file-format-symbol",
  "cur-file-format",
  "dat-file-format-variant",
  "db-file-format-variant",
  "dbf-file-format-symbol",
  "dds-file-format-symbol",
  "debian-file",
  "dem-file-format-symbol",
  "demon",
  "dll-file-format-variant",
  "dmg-file-format-symbol",
  "dmp-file-format-symbol",
  "doc-file-format-symbol",
  "docx-file-format",
  "drv-file-format-variant",
  "dtd-file-format-extension",
  "dwg-file-format-variant",
  "dxf-file-format-symbol",
  "elf-file",
  "elf-file-format-variant",
  "eml-file",
  "eps-file-format-symbol",
  "eps-file-format-variant",
  "exe-file-format-symbol",
  "fla-file-format-variant",
  "flash-file-format",
  "flv-file-format-symbol",
  "fnt-file-format",
  "fon-file-format-symbol",
  "gam-file-format-variant",
  "gbr-file-format-extension",
  "ged-file-format-symbol",
  "gif-file-format",
  "gpx-file-format-variant",
  "gz-file-format-symbol",
  "gzip-file-format-variant",
  "hqz-file-format",
  "html-file-with-code-symbol",
  "ibooks-file-format-symbol",
  "icns-file-format",
  "ico-file-format-variant",
  "ics-file-format-symbol",
  "iff-file-format",
  "indd-file-format-variant",
  "ipa-file",
  "iso-file-format",
  "iso-file-format-symbol",
  "jar-file-format",
  "jpg-image-file-format",
  "js-file-format-symbol",
  "jsp-file-format-symbol",
  "key-file-format-variant",
  "kml-file-format-variant",
  "kmz-file-format-symbol",
  "lnk-file-format-symbol",
  "log-file-format",
  "lua-file-format-symbol",
  "m3u-file-format",
  "m4a-file-format-symbol",
  "m4v-file-format-variant",
  "mach-o-file",
  "mach-o-file-format",
  "max-file-format-variant",
  "mdb-file-format-symbol",
  "mdf-file-format-variant",
  "mid-file-format",
  "mim-file-format",
  "mov-file-format-symbol",
  "mp3-file-format-variant",
  "mp4-file-format-symbol",
  "mpa-file-format",
  "mpg-file-format-variant",
  "msg-file",
  "msg-file-format-variant",
  "msi-file-format-symbol",
  "nes-file-variant",
  "object-file-format",
  "odb-file-format-variant",
  "odc-file-format-symbol",
  "odf-file-format-variant",
  "odg-file-format",
  "odi-file-format-symbol",
  "odp-file-format-symbol",
  "ods-file-format-symbol",
  "odt-file-format",
  "odt-file-format-symbol",
  "odx-file-format-extension",
  "ogg-file-format-symbol",
  "otf-file-format",
  "otf-file-format-extension",
  "pages-file-format-symbol",
  "pct-file-format-symbol",
  "pdb-file-format-variant",
  "pdf-file-format-symbol",
  "pif-file-format-variant",
  "pkg-file-format-variant",
  "pl-file-format-variant",
  "png-file-extension-interface-symbol",
  "pps-file-format-symbol",
  "ppt-file-format",
  "pptx-file-format-variant",
  "ps-file-format",
  "psd-file-format-variant",
  "pub-file-format-symbol",
  "python-file-symbol",
  "ra-file-format",
  "rar-file-format",
  "raw-file-format-symbol",
  "rm-file-format",
  "rom-file",
  "rom-file-format-variant",
  "rpm-file-format-symbol",
  "rss-file-format-symbol",
  "rtf-icon-format",
  "sav-file-format",
  "sdf-file-format",
  "sitx-file-format-variant",
  "sql-file-format-symbol",
  "sql-file-format-symbol-1",
  "srt-file-format-symbol",
  "svg-file-format-symbol",
  "swf-file-format-symbol",
  "sys-file-format",
  "tar-file-variant",
  "tex-file-format",
  "tga-file-format-symbol",
  "thm-file-format-symbol",
  "tiff-images-file-extension-symbol-for-interface",
  "tmp-icon-file-format",
  "torrent-file-format",
  "ttf-file-format-symbol",
  "txt-text-file-extension-symbol",
  "uue-file-format-symbol",
  "vb-file-symbol",
  "vcd-file-format-symbol",
  "vcf-file-format-variant",
  "vob-file-format-symbol",
  "wav-file-format-variant",
  "wma-file-format-symbol",
  "wmv-file-format-extension",
  "wpd-file-format-symbol",
  "wps-file-format",
  "wsf-file-format-variant",
  "xhtml-icon-file-format",
  "xlr-file-format-variant",
  "xls-file-format-symbol",
  "xlsx-file-format",
  "xml-file-format-variant",
  "yuv-file-format-variant",
  "zip-compressed-files-extension"
]